%YAML 1.1
%TAG !u! tag:unity3d.com,2011:
--- !u!1 &1168006780139396
GameObject:
  m_ObjectHideFlags: 0
  m_CorrespondingSourceObject: {fileID: 0}
  m_PrefabInstance: {fileID: 0}
  m_PrefabAsset: {fileID: 0}
  serializedVersion: 6
  m_Component:
  - component: {fileID: 4200843383974442}
  - component: {fileID: 33178800431750524}
  - component: {fileID: 23584842967842870}
  - component: {fileID: 64640045983667388}
  m_Layer: 0
  m_Name: Shop_A
  m_TagString: Climbable
  m_Icon: {fileID: 0}
  m_NavMeshLayer: 0
  m_StaticEditorFlags: 0
  m_IsActive: 1
--- !u!4 &4200843383974442
Transform:
  m_ObjectHideFlags: 0
  m_CorrespondingSourceObject: {fileID: 0}
  m_PrefabInstance: {fileID: 0}
  m_PrefabAsset: {fileID: 0}
  m_GameObject: {fileID: 1168006780139396}
  m_LocalRotation: {x: -0.7071068, y: -0, z: -0, w: 0.7071067}
  m_LocalPosition: {x: 0, y: 0, z: 0}
  m_LocalScale: {x: 100, y: 99.99997, z: 99.99997}
  m_Children: []
  m_Father: {fileID: 4210302965160004}
  m_RootOrder: 0
  m_LocalEulerAnglesHint: {x: 0, y: 0, z: 0}
--- !u!33 &33178800431750524
MeshFilter:
  m_ObjectHideFlags: 0
  m_CorrespondingSourceObject: {fileID: 0}
  m_PrefabInstance: {fileID: 0}
  m_PrefabAsset: {fileID: 0}
  m_GameObject: {fileID: 1168006780139396}
  m_Mesh: {fileID: 4300000, guid: 10a5393e74b9d5b418cf96bdbb0aaed1, type: 3}
--- !u!23 &23584842967842870
MeshRenderer:
  m_ObjectHideFlags: 0
  m_CorrespondingSourceObject: {fileID: 0}
  m_PrefabInstance: {fileID: 0}
  m_PrefabAsset: {fileID: 0}
  m_GameObject: {fileID: 1168006780139396}
  m_Enabled: 1
  m_CastShadows: 1
  m_ReceiveShadows: 1
  m_DynamicOccludee: 1
  m_MotionVectors: 1
  m_LightProbeUsage: 1
  m_ReflectionProbeUsage: 1
  m_RayTracingMode: 2
  m_RenderingLayerMask: 1
  m_RendererPriority: 0
  m_Materials:
  - {fileID: 2100000, guid: 125b8e3d7d52f1a4a9341372677b8015, type: 2}
  - {fileID: 2100000, guid: 0b5ab4b8a0e43004ba5e294fbe6cf73a, type: 2}
  - {fileID: 2100000, guid: 26df91506bf83b343b8083c5322323ae, type: 2}
  - {fileID: 2100000, guid: 3c98c150d6196ef419f666d71cf7d13f, type: 2}
  - {fileID: 2100000, guid: c4d3a0c81c5ffb34889379e1a1cf85bb, type: 2}
  - {fileID: 2100000, guid: 1a0dec1fa084e1b4abd7c6cf33e568ff, type: 2}
  - {fileID: 2100000, guid: ee406a0d2cd53e046b9c7bcfdcc189a7, type: 2}
  - {fileID: 2100000, guid: c06185e5d01b2bb4f86fb038b61445f5, type: 2}
  - {fileID: 2100000, guid: 9db90062b4af0004b94c5754b65e4379, type: 2}
  - {fileID: 2100000, guid: 26df91506bf83b343b8083c5322323ae, type: 2}
  - {fileID: 2100000, guid: 2100b85841ac32940a50ec36409b49c0, type: 2}
  - {fileID: 2100000, guid: 792fa418de0281e4bab622f9a60c88b2, type: 2}
  - {fileID: 2100000, guid: 5188c7492ef51d143a7128aa9700788a, type: 2}
  - {fileID: 2100000, guid: c4d3a0c81c5ffb34889379e1a1cf85bb, type: 2}
  - {fileID: 2100000, guid: d7636558dbd50f7429a53d5bc6352a44, type: 2}
  - {fileID: 2100000, guid: c4d3a0c81c5ffb34889379e1a1cf85bb, type: 2}
  - {fileID: 2100000, guid: cea0c4191eb5cb440aa5355d44958681, type: 2}
  m_StaticBatchInfo:
    firstSubMesh: 0
    subMeshCount: 0
  m_StaticBatchRoot: {fileID: 0}
  m_ProbeAnchor: {fileID: 0}
  m_LightProbeVolumeOverride: {fileID: 0}
  m_ScaleInLightmap: 1
  m_ReceiveGI: 1
  m_PreserveUVs: 0
  m_IgnoreNormalsForChartDetection: 0
  m_ImportantGI: 0
  m_StitchLightmapSeams: 0
  m_SelectedEditorRenderState: 3
  m_MinimumChartSize: 4
  m_AutoUVMaxDistance: 0.5
  m_AutoUVMaxAngle: 89
  m_LightmapParameters: {fileID: 0}
  m_SortingLayerID: 0
  m_SortingLayer: 0
  m_SortingOrder: 0
--- !u!64 &64640045983667388
MeshCollider:
  m_ObjectHideFlags: 0
  m_CorrespondingSourceObject: {fileID: 0}
  m_PrefabInstance: {fileID: 0}
  m_PrefabAsset: {fileID: 0}
  m_GameObject: {fileID: 1168006780139396}
  m_Material: {fileID: 0}
  m_IsTrigger: 0
  m_Enabled: 1
  serializedVersion: 4
  m_Convex: 0
  m_CookingOptions: 30
  m_Mesh: {fileID: 4300000, guid: 10a5393e74b9d5b418cf96bdbb0aaed1, type: 3}
--- !u!1 &1716336653257340
GameObject:
  m_ObjectHideFlags: 0
  m_CorrespondingSourceObject: {fileID: 0}
  m_PrefabInstance: {fileID: 0}
  m_PrefabAsset: {fileID: 0}
  serializedVersion: 6
  m_Component:
  - component: {fileID: 4210302965160004}
  m_Layer: 0
  m_Name: Shop_A_prefab
  m_TagString: Untagged
  m_Icon: {fileID: 0}
  m_NavMeshLayer: 0
  m_StaticEditorFlags: 0
  m_IsActive: 1
--- !u!4 &4210302965160004
Transform:
  m_ObjectHideFlags: 0
  m_CorrespondingSourceObject: {fileID: 0}
  m_PrefabInstance: {fileID: 0}
  m_PrefabAsset: {fileID: 0}
  m_GameObject: {fileID: 1716336653257340}
  m_LocalRotation: {x: 0, y: 0, z: 0, w: 1}
  m_LocalPosition: {x: 0, y: 0, z: 0}
  m_LocalScale: {x: 1, y: 1, z: 1}
  m_Children:
  - {fileID: 4200843383974442}
  m_Father: {fileID: 0}
  m_RootOrder: 0
  m_LocalEulerAnglesHint: {x: 0, y: 0, z: 0}
